{"response": {"status": "ok", "userTier": "developer", "total": 60, "startIndex": 1, "pageSize": 10, "currentPage": 1, "pages": 6, "orderBy": "newest", "results": [{"id": "football/2025/may/01/champions-league-review-a-goalkeeping-masterclass-and-an-all-time-classic-in-barcelona", "type": "article", "sectionId": "football", "sectionName": "Football", "webPublicationDate": "2025-05-01T14:02:51Z", "webTitle": "Champions League review: a goalkeeping masterclass and an all-time classic in Barcelona", "webUrl": "https://www.theguardian.com/football/2025/may/01/champions-league-review-a-goalkeeping-masterclass-and-an-all-time-classic-in-barcelona", "apiUrl": "https://content.guardianapis.com/football/2025/may/01/champions-league-review-a-goalkeeping-masterclass-and-an-all-time-classic-in-barcelona", "isHosted": false, "pillarId": "pillar/sport", "pillarName": "Sport"}, {"id": "world/2025/may/01/thursday-briefing-whats-at-stake-for-every-party-in-englands-local-elections", "type": "article", "sectionId": "world", "sectionName": "World news", "webPublicationDate": "2025-05-01T05:48:13Z", "webTitle": "Thursday briefing: \u200bWhat\u2019s at stake for every party in\u200b England\u200b\u2019s local \u200belections\u200b?", "webUrl": "https://www.theguardian.com/world/2025/may/01/thursday-briefing-whats-at-stake-for-every-party-in-englands-local-elections", "apiUrl": "https://content.guardianapis.com/world/2025/may/01/thursday-briefing-whats-at-stake-for-every-party-in-englands-local-elections", "isHosted": false, "pillarId": "pillar/news", "pillarName": "News"}, {"id": "football/live/2025/apr/30/barcelona-v-inter-champions-league-semi-final-first-leg-live-score-updates", "type": "liveblog", "sectionId": "football", "sectionName": "Football", "webPublicationDate": "2025-04-30T21:40:06Z", "webTitle": "Barcelona 3-3 Inter: Champions League semi-final, first leg \u2013 as it happened", "webUrl": "https://www.theguardian.com/football/live/2025/apr/30/barcelona-v-inter-champions-league-semi-final-first-leg-live-score-updates", "apiUrl": "https://content.guardianapis.com/football/live/2025/apr/30/barcelona-v-inter-champions-league-semi-final-first-leg-live-score-updates", "isHosted": false, "pillarId": "pillar/sport", "pillarName": "Sport"}, {"id": "football/2025/apr/30/barcelona-inter-champions-league-semi-final-first-leg-match-report", "type": "article", "sectionId": "football", "sectionName": "Football", "webPublicationDate": "2025-04-30T21:04:55Z", "webTitle": "Lamine Yamal dazzles as Barcelona and Inter trade stunning goals in 3-3 thriller", "webUrl": "https://www.theguardian.com/football/2025/apr/30/barcelona-inter-champions-league-semi-final-first-leg-match-report", "apiUrl": "https://content.guardianapis.com/football/2025/apr/30/barcelona-inter-champions-league-semi-final-first-leg-match-report", "isHosted": false, "pillarId": "pillar/sport", "pillarName": "Sport"}, {"id": "football/2025/apr/30/one-big-dream-bodo-glimts-modern-miracle-built-on-history-and-humility", "type": "article", "sectionId": "football", "sectionName": "Football", "webPublicationDate": "2025-04-30T18:44:54Z", "webTitle": "\u2018One big dream\u2019: Bod\u00f8/Glimt\u2019s modern miracle built on history and humility", "webUrl": "https://www.theguardian.com/football/2025/apr/30/one-big-dream-bodo-glimts-modern-miracle-built-on-history-and-humility", "apiUrl": "https://content.guardianapis.com/football/2025/apr/30/one-big-dream-bodo-glimts-modern-miracle-built-on-history-and-humility", "isHosted": false, "pillarId": "pillar/sport", "pillarName": "Sport"}, {"id": "football/live/2025/apr/29/arsenal-v-paris-saint-germain-psg-champions-league-semi-final-first-leg-live-score-updates", "type": "liveblog", "sectionId": "football", "sectionName": "Football", "webPublicationDate": "2025-04-29T21:28:39Z", "webTitle": "Arsenal 0-1 Paris Saint-Germain: Champions League semi-final, first leg \u2013 as it happened", "webUrl": "https://www.theguardian.com/football/live/2025/apr/29/arsenal-v-paris-saint-germain-psg-champions-league-semi-final-first-leg-live-score-updates", "apiUrl": "https://content.guardianapis.com/football/live/2025/apr/29/arsenal-v-paris-saint-germain-psg-champions-league-semi-final-first-leg-live-score-updates", "isHosted": false, "pillarId": "pillar/sport", "pillarName": "Sport"}, {"id": "sport/2025/apr/29/football-soccer-stadiums-everton-nfl", "type": "article", "sectionId": "football", "sectionName": "Football", "webPublicationDate": "2025-04-29T09:00:20Z", "webTitle": "The stadium myth: new grounds won\u2019t rescue your club \u2013 or your city", "webUrl": "https://www.theguardian.com/sport/2025/apr/29/football-soccer-stadiums-everton-nfl", "apiUrl": "https://content.guardianapis.com/sport/2025/apr/29/football-soccer-stadiums-everton-nfl", "isHosted": false, "pillarId": "pillar/sport", "pillarName": "Sport"}, {"id": "football/2025/apr/28/scott-mctominay-bathes-in-the-adoration-as-napoli-leap-clear-in-serie-a-title-race", "type": "article", "sectionId": "football", "sectionName": "Football", "webPublicationDate": "2025-04-28T11:01:28Z", "webTitle": "Scott McTominay bathes in the adoration as Napoli leap clear in title race | Nicky Bandini", "webUrl": "https://www.theguardian.com/football/2025/apr/28/scott-mctominay-bathes-in-the-adoration-as-napoli-leap-clear-in-serie-a-title-race", "apiUrl": "https://content.guardianapis.com/football/2025/apr/28/scott-mctominay-bathes-in-the-adoration-as-napoli-leap-clear-in-serie-a-title-race", "isHosted": false, "pillarId": "pillar/sport", "pillarName": "Sport"}, {"id": "artanddesign/2025/apr/28/cosmic-metros-ufo-circus-tops-mesmerising-architecture-tashkent", "type": "article", "sectionId": "artanddesign", "sectionName": "Art and design", "webPublicationDate": "2025-04-28T04:00:54Z", "webTitle": "Cosmic metros, UFO circus tops and a 3,000C sun gun: the mesmerising architecture of Tashkent", "webUrl": "https://www.theguardian.com/artanddesign/2025/apr/28/cosmic-metros-ufo-circus-tops-mesmerising-architecture-tashkent", "apiUrl": "https://content.guardianapis.com/artanddesign/2025/apr/28/cosmic-metros-ufo-circus-tops-mesmerising-architecture-tashkent", "isHosted": false, "pillarId": "pillar/arts", "pillarName": "Arts"}, {"id": "football/2025/apr/27/arne-slot-coolness-heart-liverpool-record-equalling-premier-league-title", "type": "article", "sectionId": "football", "sectionName": "Football", "webPublicationDate": "2025-04-27T21:00:42Z", "webTitle": "Arne Slot\u2019s coolness lies at heart of Liverpool\u2019s record-equalling title | Andy Hunter", "webUrl": "https://www.theguardian.com/football/2025/apr/27/arne-slot-coolness-heart-liverpool-record-equalling-premier-league-title", "apiUrl": "https://content.guardianapis.com/football/2025/apr/27/arne-slot-coolness-heart-liverpool-record-equalling-premier-league-title", "isHosted": false, "pillarId": "pillar/sport", "pillarName": "Sport"}]}}
